%YAML 1.1
%TAG !u! tag:unity3d.com,2011:
--- !u!74 &7400000
AnimationClip:
  m_ObjectHideFlags: 0
  m_PrefabParentObject: {fileID: 0}
  m_PrefabInternal: {fileID: 0}
  m_Name: BombRemove
  serializedVersion: 6
  m_Legacy: 0
  m_Compressed: 0
  m_UseHighQualityCurve: 1
  m_RotationCurves: []
  m_CompressedRotationCurves: []
  m_PositionCurves: []
  m_ScaleCurves:
  - curve:
      serializedVersion: 2
      m_Curve:
      - time: 0
        value: {x: .5, y: .0500000007, z: .5}
        inSlope: {x: 6, y: 0, z: 6}
        outSlope: {x: 6, y: 0, z: 6}
        tangentMode: 0
      - time: .0833333358
        value: {x: 1, y: .0500000007, z: 1}
        inSlope: {x: 1.01999998, y: 0, z: 1.01999998}
        outSlope: {x: 1.01999998, y: 0, z: 1.01999998}
        tangentMode: 0
      - time: .333333343
        value: {x: .00999999978, y: .0500000007, z: .00999999978}
        inSlope: {x: -3.96000004, y: 0, z: -3.96000004}
        outSlope: {x: -3.96000004, y: 0, z: -3.96000004}
        tangentMode: 0
      m_PreInfinity: 2
      m_PostInfinity: 2
    path: 
  m_FloatCurves: []
  m_PPtrCurves: []
  m_SampleRate: 60
  m_WrapMode: 0
  m_Bounds:
    m_Center: {x: 0, y: 0, z: 0}
    m_Extent: {x: 0, y: 0, z: 0}
  m_ClipBindingConstant:
    genericBindings:
    - path: 0
      attribute: 3
      script: {fileID: 0}
      classID: 4
      customType: 0
      isPPtrCurve: 0
    pptrCurveMapping: []
  m_AnimationClipSettings:
    serializedVersion: 2
    m_StartTime: 0
    m_StopTime: .333333343
    m_OrientationOffsetY: 0
    m_Level: 0
    m_CycleOffset: 0
    m_LoopTime: 0
    m_LoopBlend: 0
    m_LoopBlendOrientation: 0
    m_LoopBlendPositionY: 0
    m_LoopBlendPositionXZ: 0
    m_KeepOriginalOrientation: 0
    m_KeepOriginalPositionY: 1
    m_KeepOriginalPositionXZ: 0
    m_HeightFromFeet: 0
    m_Mirror: 0
  m_EditorCurves:
  - curve:
      serializedVersion: 2
      m_Curve:
      - time: 0
        value: .5
        inSlope: 6
        outSlope: 6
        tangentMode: 10
      - time: .0833333358
        value: 1
        inSlope: 1.01999998
        outSlope: 1.01999998
        tangentMode: 10
      - time: .333333343
        value: .00999999978
        inSlope: -3.96000004
        outSlope: -3.96000004
        tangentMode: 10
      m_PreInfinity: 2
      m_PostInfinity: 2
    attribute: m_LocalScale.x
    path: 
    classID: 4
    script: {fileID: 0}
  - curve:
      serializedVersion: 2
      m_Curve:
      - time: 0
        value: .0500000007
        inSlope: 0
        outSlope: 0
        tangentMode: 10
      - time: .0833333358
        value: .0500000007
        inSlope: 0
        outSlope: 0
        tangentMode: 10
      - time: .333333343
        value: .0500000007
        inSlope: 0
        outSlope: 0
        tangentMode: 10
      m_PreInfinity: 2
      m_PostInfinity: 2
    attribute: m_LocalScale.y
    path: 
    classID: 4
    script: {fileID: 0}
  - curve:
      serializedVersion: 2
      m_Curve:
      - time: 0
        value: .5
        inSlope: 6
        outSlope: 6
        tangentMode: 10
      - time: .0833333358
        value: 1
        inSlope: 1.01999998
        outSlope: 1.01999998
        tangentMode: 10
      - time: .333333343
        value: .00999999978
        inSlope: -3.96000004
        outSlope: -3.96000004
        tangentMode: 10
      m_PreInfinity: 2
      m_PostInfinity: 2
    attribute: m_LocalScale.z
    path: 
    classID: 4
    script: {fileID: 0}
  m_EulerEditorCurves: []
  m_HasGenericRootTransform: 0
  m_HasMotionFloatCurves: 0
  m_GenerateMotionCurves: 0
  m_Events: []
