%YAML 1.1
%TAG !u! tag:unity3d.com,2011:
--- !u!74 &7400000
AnimationClip:
  m_ObjectHideFlags: 0
  m_PrefabParentObject: {fileID: 0}
  m_PrefabInternal: {fileID: 0}
  m_Name: ExcellentIdle
  serializedVersion: 6
  m_Legacy: 0
  m_Compressed: 0
  m_UseHighQualityCurve: 1
  m_RotationCurves: []
  m_CompressedRotationCurves: []
  m_PositionCurves: []
  m_ScaleCurves: []
  m_FloatCurves:
  - curve:
      serializedVersion: 2
      m_Curve:
      - time: 0
        value: 0
        inSlope: 0
        outSlope: 0
        tangentMode: 10
      - time: 1
        value: 0
        inSlope: 0
        outSlope: 0
        tangentMode: 10
      m_PreInfinity: 2
      m_PostInfinity: 2
    attribute: m_LocalPosition.z
    path: 
    classID: 224
    script: {fileID: 0}
  - curve:
      serializedVersion: 2
      m_Curve:
      - time: 0
        value: 6
        inSlope: 27
        outSlope: 27
        tangentMode: 10
      - time: 1
        value: 33
        inSlope: 27
        outSlope: 27
        tangentMode: 10
      m_PreInfinity: 2
      m_PostInfinity: 2
    attribute: m_AnchoredPosition.y
    path: 
    classID: 224
    script: {fileID: 0}
  - curve:
      serializedVersion: 2
      m_Curve:
      - time: 0
        value: 1
        inSlope: -1
        outSlope: -1
        tangentMode: 10
      - time: 1
        value: 0
        inSlope: -1
        outSlope: -1
        tangentMode: 10
      m_PreInfinity: 2
      m_PostInfinity: 2
    attribute: m_Color.a
    path: 
    classID: 114
    script: {fileID: -98529514, guid: f5f67c52d1564df4a8936ccd202a3bd8, type: 3}
  m_PPtrCurves:
  - curve:
    - time: 0
      value: {fileID: 0}
    - time: .166666672
      value: {fileID: 0}
    - time: .666666687
      value: {fileID: 0}
    - time: 1
      value: {fileID: 0}
    attribute: m_Material
    path: 
    classID: 114
    script: {fileID: -98529514, guid: f5f67c52d1564df4a8936ccd202a3bd8, type: 3}
  m_SampleRate: 60
  m_WrapMode: 0
  m_Bounds:
    m_Center: {x: 0, y: 0, z: 0}
    m_Extent: {x: 0, y: 0, z: 0}
  m_ClipBindingConstant:
    genericBindings:
    - path: 0
      attribute: 538195251
      script: {fileID: 0}
      classID: 224
      customType: 0
      isPPtrCurve: 0
    - path: 0
      attribute: 304273561
      script: {fileID: -98529514, guid: f5f67c52d1564df4a8936ccd202a3bd8, type: 3}
      classID: 114
      customType: 0
      isPPtrCurve: 0
    - path: 0
      attribute: 2324865467
      script: {fileID: -98529514, guid: f5f67c52d1564df4a8936ccd202a3bd8, type: 3}
      classID: 114
      customType: 0
      isPPtrCurve: 1
    - path: 0
      attribute: 2033536083
      script: {fileID: 0}
      classID: 224
      customType: 0
      isPPtrCurve: 0
    pptrCurveMapping:
    - {fileID: 0}
    - {fileID: 0}
    - {fileID: 0}
    - {fileID: 0}
  m_AnimationClipSettings:
    serializedVersion: 2
    m_StartTime: 0
    m_StopTime: 1.01666665
    m_OrientationOffsetY: 0
    m_Level: 0
    m_CycleOffset: 0
    m_LoopTime: 0
    m_LoopBlend: 0
    m_LoopBlendOrientation: 0
    m_LoopBlendPositionY: 0
    m_LoopBlendPositionXZ: 0
    m_KeepOriginalOrientation: 0
    m_KeepOriginalPositionY: 1
    m_KeepOriginalPositionXZ: 0
    m_HeightFromFeet: 0
    m_Mirror: 0
  m_EditorCurves:
  - curve:
      serializedVersion: 2
      m_Curve:
      - time: 0
        value: 0
        inSlope: 0
        outSlope: 0
        tangentMode: 10
      - time: 1
        value: 0
        inSlope: 0
        outSlope: 0
        tangentMode: 10
      m_PreInfinity: 2
      m_PostInfinity: 2
    attribute: m_LocalPosition.z
    path: 
    classID: 224
    script: {fileID: 0}
  - curve:
      serializedVersion: 2
      m_Curve:
      - time: 0
        value: 6
        inSlope: 27
        outSlope: 27
        tangentMode: 10
      - time: 1
        value: 33
        inSlope: 27
        outSlope: 27
        tangentMode: 10
      m_PreInfinity: 2
      m_PostInfinity: 2
    attribute: m_AnchoredPosition.y
    path: 
    classID: 224
    script: {fileID: 0}
  - curve:
      serializedVersion: 2
      m_Curve:
      - time: 0
        value: 1
        inSlope: -1
        outSlope: -1
        tangentMode: 10
      - time: 1
        value: 0
        inSlope: -1
        outSlope: -1
        tangentMode: 10
      m_PreInfinity: 2
      m_PostInfinity: 2
    attribute: m_Color.a
    path: 
    classID: 114
    script: {fileID: -98529514, guid: f5f67c52d1564df4a8936ccd202a3bd8, type: 3}
  m_EulerEditorCurves: []
  m_HasGenericRootTransform: 0
  m_HasMotionFloatCurves: 0
  m_GenerateMotionCurves: 0
  m_Events:
  - time: 1
    functionName: Setfalse
    data: 
    objectReferenceParameter: {fileID: 0}
    floatParameter: 0
    intParameter: 0
    messageOptions: 0
